#FIG 3.2  Produced by xfig version 3.2.5-alpha5
Landscape
Center
Metric
A4      
100.00
Single
-2
1200 2
6 0 0 7515 3555
6 0 2115 7515 3555
6 0 2115 1845 3555
6 0 2790 1845 3555
2 2 0 2 0 11 50 -1 30 0.000 0 0 -1 0 0 5
	 20 2835 1820 2835 1820 3510 20 3510 20 2835
4 1 0 50 -1 18 18 0.0000 4 210 540 920 3285 U2F\001
-6
2 1 0 2 0 17 50 -1 -1 0.000 0 0 -1 1 0 2
	1 1 2.00 120.00 240.00
	 922 2160 922 2835
-6
6 2835 2115 4680 3555
6 2835 2790 4680 3555
2 2 0 2 0 11 50 -1 30 0.000 0 0 -1 0 0 5
	 2855 2835 4655 2835 4655 3510 2855 3510 2855 2835
4 1 0 50 -1 18 18 0.0000 4 210 1290 3755 3285 FeeClient\001
-6
2 1 0 2 0 17 50 -1 -1 0.000 0 0 -1 1 0 2
	1 1 2.00 120.00 240.00
	 3757 2160 3757 2835
-6
6 5580 2115 7515 3555
6 5599 2790 7489 3555
2 2 0 2 0 11 50 -1 30 0.000 0 0 -1 0 0 5
	 5644 2835 7444 2835 7444 3510 5644 3510 5644 2835
4 1 0 50 -1 18 18 0.0000 4 210 855 6544 3285 RORC\001
-6
2 1 0 2 0 17 50 -1 -1 0.000 0 0 -1 1 0 2
	1 1 2.00 120.00 240.00
	 6547 2160 6547 2835
-6
-6
6 450 1395 7065 2160
2 2 0 2 0 20 50 -1 30 0.000 0 0 -1 0 0 5
	 495 1440 7020 1440 7020 2115 495 2115 495 1440
4 1 0 50 -1 18 18 0.0000 4 210 1590 3757 1890 Abstraction\001
-6
6 562 0 6952 765
2 2 0 2 0 31 50 -1 30 0.000 0 0 -1 0 0 5
	 607 45 6907 45 6907 720 607 720 607 45
4 1 0 50 -1 18 18 0.0000 4 270 3030 3757 495 Component interfaces\001
-6
2 1 0 2 0 17 50 -1 -1 0.000 0 0 -1 1 0 2
	1 1 2.00 120.00 240.00
	 3735 720 3735 1440
-6
